id,en,fr
SHIP_HEAVY-COTHON,OAM-Cothon,OAM-Cothon
SHIP_HEAVY-COTHON_DESC,"This unauthorized modification of the Cothon 212, known unofficially as the One Armed Bandit, has had one hardpoint reinforced to handle equipment normally reserved only for high-stress hardpoints.  Meant to enable less affluent contractors to handle salvage, a pilot flying these heavy craft with an ARM installed must be very aware of their unbalanced center of mass, as well as their delta V reserves.","Cette modification non autorisée du Cothon 212, connue officieusement sous le nom de One Armed Bandit, a possède un point d'emport renforcé pour gérer de l'équipement normalement réservé aux points d'emport lourd. Destinés aux entrepreneurs moins aisés voulant effectuer de la récupération, voir du sauvetage, le pilote doit être conscient du centre de masse déséquilibré, ainsi que de leurs réserves delta V."
SHIP_HEAVY-COTHON_SPECS,"Maker: Unknown
High-Stress Hardpoints: 1
Low-Stress Hardpoints: 1
Crew: 3
Dry mass: 85,900 kg
Processed cargo storage: 21,000 kg
EMP shielding: 100 MW","Constructeur: Inconnu
Point d'emport lourd: 1
Point d'emport Léger: 1
Equipage: 3
Masse de la coque: 85,900 kg
Masse stockable de minéraux rafinée: 21,000 kgBouclier EMP: 100 MW"
